format  {TclDevKit Project File}
fmtver  2.0
fmttool {TclDevKit TclApp PackageDefinition} 2.5

##  Saved at : Wed Jan 21 08:00:48 PM PST 2009
##  By       : aku
##
##  Generated by "sak.tcl tap"
##  of tklib 0.5

########
#####
###
##
#

# ###############
# Complete bundle

Package {tklib 0.5}
Base     @TAP_DIR@
Platform *
Desc     {Tklib: Bundle of all packages}
Path     pkgIndex.tcl
Path     autoscroll
Path     canvas
Path     chatwidget
Path     ctext
Path     cursor
Path     crosshair
Path     datefield
Path     diagrams
Path     getstring
Path     history
Path     ico
Path     ipentry
Path     khim
Path     ntext
Path     plotchart
Path     style
Path     swaplist
Path     tablelist
Path     tkpiechart
Path     tooltip
Path     widget

# ###################
# Module "autoscroll"
# [1]    | "autoscroll" (1.1)
# -------+

Package {autoscroll 1.1}
Platform *
Desc     {Provides for a scrollbar to automatically mapped and unmapped as needed}
Base     @TAP_DIR@/autoscroll
Path     autoscroll.tcl
Path     pkgIndex.tcl

#
# ###################

# ###############
# Module "canvas"
# [1]    | "canvas::zoom" (0.1)
# [2]    | "canvas::sqmap" (0.2)
# -------+

Package {__canvas 0.0}
Platform *
Desc     {Variations on a canvas}
Hidden
Base     @TAP_DIR@/canvas
Path     canvas_sqmap.tcl
Path     canvas_zoom.tcl
Path     pkgIndex.tcl

Package {canvas::zoom 0.1}
See   __canvas
Platform *
Desc     {Zoom control for canvas::sqmap}

Package {canvas::sqmap 0.2}
See   __canvas
Platform *
Desc     {Canvas with map background based on square tiles}

#
# ###############

# ###################
# Module "chatwidget"
# [1]    | "chatwidget" (1.1.0)
# -------+

Package {chatwidget 1.1.0}
Platform *
Desc     {Provides a multi-paned view suitable for display of chat room or irc channel information}
Base     @TAP_DIR@/chatwidget
Path     chatwidget.tcl
Path     pkgIndex.tcl

#
# ###################

# ##############
# Module "ctext"
# [1]    | "ctext" (3.2)
# -------+

Package {ctext 3.2}
Platform *
Desc     {Ctext a text widget with highlighting support}
Base     @TAP_DIR@/ctext
Path     ctext.tcl
Path     pkgIndex.tcl

#
# ##############

# ###############
# Module "cursor"
# [1]    | "cursor" (0.2)
# -------+

Package {cursor 0.2}
Platform *
Desc     {Procedures to handle CURSOR data}
Base     @TAP_DIR@/cursor
Path     cursor.tcl
Path     pkgIndex.tcl

#
# ###############

# ##################
# Module "crosshair"
# [1]    | "crosshair" (1.0.2)
# -------+

Package {crosshair 1.0.2}
Platform *
Desc     {Crosshairs for Tk canvas}
Base     @TAP_DIR@/crosshair
Path     crosshair.tcl
Path     pkgIndex.tcl

#
# ##################

# ##################
# Module "datefield"
# [1]    | "datefield" (0.2)
# -------+

Package {datefield 0.2}
Platform *
Desc     {Tk datefield widget}
Base     @TAP_DIR@/datefield
Path     datefield.tcl
Path     pkgIndex.tcl

#
# ##################

# #################
# Module "diagrams"
# [1]    | "Diagrams" (0.2)
# -------+

Package {Diagrams 0.2}
Platform *
Desc     {User documentation of the Diagrams package}
Base     @TAP_DIR@/diagrams
Path     draw_diagram.tcl
Path     pkgIndex.tcl

#
# #################

# ##################
# Module "getstring"
# [1]    | "getstring" (0.1)
# -------+

Package {getstring 0.1}
Platform *
Desc     {A string dialog}
Base     @TAP_DIR@/getstring
Path     pkgIndex.tcl
Path     tk_getString.tcl

#
# ##################

# ################
# Module "history"
# [1]    | "history" (0.1)
# -------+

Package {history 0.1}
Platform *
Desc     {Provides a history for Entry widgets}
Base     @TAP_DIR@/history
Path     history.tcl
Path     pkgIndex.tcl

#
# ################

# ############
# Module "ico"
# [1]    | "ico" (0.3.1)
# [2]    | "ico" (1.0.3)
# -------+

Package {__ico 0.0}
Platform *
Desc     {Windows ICO handling}
Hidden
Base     @TAP_DIR@/ico
Path     ico.tcl
Path     ico0.tcl
Path     pkgIndex.tcl

Package {ico 0.3.1}
See   __ico
Platform *
Desc     {Reading and writing windows icons}

Package {ico 1.0.3}
See   __ico
Platform *
Desc     {Reading and writing windows icons}

#
# ############

# ################
# Module "ipentry"
# [1]    | "ipentry" (0.3)
# -------+

Package {ipentry 0.3}
Platform *
Desc     {An IP address entry widget}
Base     @TAP_DIR@/ipentry
Path     ipentry.tcl
Path     pkgIndex.tcl

#
# ################

# #############
# Module "khim"
# [1]    | "khim" (1.0.1)
# -------+

Package {khim 1.0.1}
Platform *
Desc     {Provides key bindings for entering international characters on a keyboard that does not support them}
Base     @TAP_DIR@/khim
Path     cs.msg
Path     da.msg
Path     de.msg
Path     en.msg
Path     es.msg
Path     khim.tcl
Path     pkgIndex.tcl
Path     pl.msg
Path     ROOT.msg
Path     ru.msg
Path     uk.msg

#
# #############

# ##############
# Module "ntext"
# [1]    | "ntext" (0.81)
# -------+

Package {ntext 0.81}
Platform *
Desc     {ntext Word Boundary Detection for the Text Widget}
Base     @TAP_DIR@/ntext
Path     ntext.tcl
Path     pkgIndex.tcl

#
# ##############

# ##################
# Module "plotchart"
# [1]    | "Plotchart" (1.6.1)
# -------+

Package {Plotchart 1.6.1}
Platform *
Desc     {Simple plotting and charting package}
Base     @TAP_DIR@/plotchart
Path     pkgIndex.tcl
Path     plot3d.tcl
Path     plotannot.tcl
Path     plotaxis.tcl
Path     plotbusiness.tcl
Path     plotchart.tcl
Path     plotconfig.tcl
Path     plotcontour.tcl
Path     plotgantt.tcl
Path     plotpack.tcl
Path     plotpriv.tcl
Path     scaling.tcl

#
# ##################

# ##############
# Module "style"
# [1]    | "style::lobster" (0.2)
# [2]    | "style::as" (1.4)
# [3]    | "style" (0.3)
# -------+

Package {__style 0.0}
Platform *
Desc     {Tklib module}
Hidden
Base     @TAP_DIR@/style
Path     as.tcl
Path     lobster.tcl
Path     pkgIndex.tcl
Path     style.tcl

Package {style::lobster 0.2}
See   __style
Platform *
Desc     {Tklib package}

Package {style::as 1.4}
See   __style
Platform *
Desc     {Tklib package}

Package {style 0.3}
See   __style
Platform *
Desc     {Tklib package}

#
# ##############

# #################
# Module "swaplist"
# [1]    | "swaplist" (0.2)
# -------+

Package {swaplist 0.2}
Platform *
Desc     {A dialog which allows a user to move options between two lists}
Base     @TAP_DIR@/swaplist
Path     pkgIndex.tcl
Path     swaplist.tcl

#
# #################

# ##################
# Module "tablelist"
# [1]    | "tablelist::common" (4.10.1)
# [2]    | "Tablelist" (4.10.1)
# [3]    | "tablelist" (4.10.1)
# [4]    | "Tablelist_tile" (4.10.1)
# [5]    | "tablelist_tile" (4.10.1)
# -------+

Package {__tablelist 0.0}
Platform *
Desc     {Tklib module}
Hidden
Base     @TAP_DIR@/tablelist
Path     pkgIndex.tcl
Path     scripts/mwutil.tcl
Path     scripts/repair.tcl
Path     scripts/tablelistBind.tcl
Path     scripts/tablelistBitmaps.tcl
Path     scripts/tablelistConfig.tcl
Path     scripts/tablelistEdit.tcl
Path     scripts/tablelistMove.tcl
Path     scripts/tablelistSort.tcl
Path     scripts/tablelistThemes.tcl
Path     scripts/tablelistUtil.tcl
Path     scripts/tablelistWidget.tcl
Path     scripts/tclIndex
Path     tablelist.tcl
Path     tablelist_tile.tcl
Path     tablelistPublic.tcl

Package {tablelist::common 4.10.1}
See   __tablelist
Platform *
Desc     {Tklib package}

Package {Tablelist 4.10.1}
See   __tablelist
Platform *
Desc     {Tklib package}

Package {tablelist 4.10.1}
See   __tablelist
Platform *
Desc     {Tklib package}

Package {Tablelist_tile 4.10.1}
See   __tablelist
Platform *
Desc     {Tklib package}

Package {tablelist_tile 4.10.1}
See   __tablelist
Platform *
Desc     {Tklib package}

#
# ##################

# ###################
# Module "tkpiechart"
# -------+

Package {{} {}}
Platform *
Desc     {Tklib package}
Base     @TAP_DIR@/tkpiechart
Path     boxlabel.tcl
Path     canlabel.tcl
Path     labarray.tcl
Path     objselec.tcl
Path     perilabel.tcl
Path     pie.tcl
Path     pielabel.tcl
Path     pkgIndex.tcl
Path     relirect.tcl
Path     selector.tcl
Path     slice.tcl
Path     tkpiechart.tcl

#
# ###################

# ################
# Module "tooltip"
# [1]    | "tipstack" (1.0.1)
# [2]    | "tooltip" (1.4.4)
# -------+

Package {__tooltip 0.0}
Platform *
Desc     {Tooltip management}
Hidden
Base     @TAP_DIR@/tooltip
Path     pkgIndex.tcl
Path     tipstack.tcl
Path     tooltip.tcl

Package {tipstack 1.0.1}
See   __tooltip
Platform *
Desc     {Tklib package}

Package {tooltip 1.4.4}
See   __tooltip
Platform *
Desc     {Tooltip management}

#
# ################

# ###############
# Module "widget"
# [1]    | "widget::statusbar" (1.2)
# [2]    | "widget::screenruler" (1.2)
# [3]    | "widget::superframe" (1.0)
# [4]    | "widget::calendar" (0.9)
# [5]    | "widget::ruler" (1.1)
# [6]    | "widget" (3.0)
# [7]    | "widget::scrolledtext" (1.0)
# [8]    | "widget::dialog" (1.3)
# [9]    | "widget::dateentry" (0.91)
# [10]    | "widget::scrolledwindow" (1.2)
# [11]    | "widget::panelframe" (1.1)
# [12]    | "widget::toolbar" (1.2)
# [13]    | "widget::menuentry" (1.0)
# -------+

Package {__widget 0.0}
Platform *
Desc     {widget::calendar Megawidget, widget::toolbar Megawidget}
Hidden
Base     @TAP_DIR@/widget
Path     calendar.tcl
Path     dateentry.tcl
Path     dialog.tcl
Path     mentry.tcl
Path     panelframe.tcl
Path     pkgIndex.tcl
Path     ruler.tcl
Path     scrollw.tcl
Path     statusbar.tcl
Path     stext.tcl
Path     superframe.tcl
Path     toolbar.tcl
Path     widget.tcl

Package {widget::statusbar 1.2}
See   __widget
Platform *
Desc     {Tklib package}

Package {widget::screenruler 1.2}
See   __widget
Platform *
Desc     {Tklib package}

Package {widget::superframe 1.0}
See   __widget
Platform *
Desc     {Tklib package}

Package {widget::calendar 0.9}
See   __widget
Platform *
Desc     {Tklib package}

Package {widget::ruler 1.1}
See   __widget
Platform *
Desc     {Tklib package}

Package {widget 3.0}
See   __widget
Platform *
Desc     {widget::calendar Megawidget}

Package {widget::scrolledtext 1.0}
See   __widget
Platform *
Desc     {Tklib package}

Package {widget::dialog 1.3}
See   __widget
Platform *
Desc     {Tklib package}

Package {widget::dateentry 0.91}
See   __widget
Platform *
Desc     {Tklib package}

Package {widget::scrolledwindow 1.2}
See   __widget
Platform *
Desc     {Tklib package}

Package {widget::panelframe 1.1}
See   __widget
Platform *
Desc     {Tklib package}

Package {widget::toolbar 1.2}
See   __widget
Platform *
Desc     {widget::toolbar Megawidget}

Package {widget::menuentry 1.0}
See   __widget
Platform *
Desc     {Tklib package}

#
# ###############

#
##
###
#####
########
